info face="PMingLiU" size=20 bold=0 italic=0 charset="" unicode=0 stretchH=100 smooth=1 aa=1 padding=0,0,0,0 spacing=0,0
common lineHeight=24 base=18 scaleW=512 scaleH=512 pages=1 packed=0
page id=0 file="number.png"
chars count=94
char id=32   x=0     y=0     width=0     height=0     xoffset=0     yoffset=18    xadvance=5     page=0  chnl=0 
char id=36   x=0     y=0     width=10     height=20     xoffset=0     yoffset=3    xadvance=9     page=0  chnl=0 
char id=125   x=10     y=0     width=7     height=19     xoffset=2     yoffset=4    xadvance=9     page=0  chnl=0 
char id=123   x=17     y=0     width=7     height=19     xoffset=1     yoffset=4    xadvance=9     page=0  chnl=0 
char id=93   x=24     y=0     width=6     height=19     xoffset=0     yoffset=4    xadvance=6     page=0  chnl=0 
char id=91   x=30     y=0     width=6     height=19     xoffset=1     yoffset=4    xadvance=6     page=0  chnl=0 
char id=41   x=36     y=0     width=7     height=19     xoffset=0     yoffset=4    xadvance=6     page=0  chnl=0 
char id=40   x=43     y=0     width=7     height=19     xoffset=0     yoffset=4    xadvance=6     page=0  chnl=0 
char id=106   x=50     y=0     width=6     height=19     xoffset=0     yoffset=4    xadvance=5     page=0  chnl=0 
char id=81   x=56     y=0     width=15     height=19     xoffset=0     yoffset=4    xadvance=14     page=0  chnl=0 
char id=38   x=71     y=0     width=16     height=17     xoffset=0     yoffset=4    xadvance=15     page=0  chnl=0 
char id=35   x=87     y=0     width=11     height=17     xoffset=0     yoffset=4    xadvance=9     page=0  chnl=0 
char id=37   x=98     y=0     width=15     height=17     xoffset=1     yoffset=4    xadvance=16     page=0  chnl=0 
char id=92   x=113     y=0     width=7     height=17     xoffset=0     yoffset=4    xadvance=5     page=0  chnl=0 
char id=64   x=120     y=0     width=15     height=17     xoffset=2     yoffset=4    xadvance=17     page=0  chnl=0 
char id=47   x=135     y=0     width=7     height=17     xoffset=0     yoffset=4    xadvance=5     page=0  chnl=0 
char id=124   x=142     y=0     width=3     height=17     xoffset=1     yoffset=4    xadvance=4     page=0  chnl=0 
char id=63   x=145     y=0     width=8     height=17     xoffset=1     yoffset=4    xadvance=8     page=0  chnl=0 
char id=33   x=153     y=0     width=4     height=17     xoffset=2     yoffset=4    xadvance=6     page=0  chnl=0 
char id=48   x=157     y=0     width=10     height=17     xoffset=0     yoffset=4    xadvance=9     page=0  chnl=0 
char id=57   x=167     y=0     width=10     height=17     xoffset=0     yoffset=4    xadvance=9     page=0  chnl=0 
char id=56   x=177     y=0     width=9     height=17     xoffset=1     yoffset=4    xadvance=9     page=0  chnl=0 
char id=55   x=186     y=0     width=10     height=17     xoffset=0     yoffset=4    xadvance=9     page=0  chnl=0 
char id=54   x=196     y=0     width=10     height=17     xoffset=0     yoffset=4    xadvance=9     page=0  chnl=0 
char id=53   x=206     y=0     width=10     height=17     xoffset=0     yoffset=4    xadvance=9     page=0  chnl=0 
char id=52   x=216     y=0     width=10     height=17     xoffset=0     yoffset=4    xadvance=9     page=0  chnl=0 
char id=51   x=226     y=0     width=10     height=17     xoffset=0     yoffset=4    xadvance=9     page=0  chnl=0 
char id=50   x=236     y=0     width=10     height=17     xoffset=0     yoffset=4    xadvance=9     page=0  chnl=0 
char id=49   x=246     y=0     width=7     height=17     xoffset=2     yoffset=4    xadvance=9     page=0  chnl=0 
char id=108   x=253     y=0     width=6     height=17     xoffset=0     yoffset=4    xadvance=5     page=0  chnl=0 
char id=107   x=259     y=0     width=11     height=17     xoffset=0     yoffset=4    xadvance=9     page=0  chnl=0 
char id=105   x=270     y=0     width=6     height=17     xoffset=0     yoffset=4    xadvance=5     page=0  chnl=0 
char id=104   x=276     y=0     width=11     height=17     xoffset=0     yoffset=4    xadvance=9     page=0  chnl=0 
char id=102   x=287     y=0     width=10     height=17     xoffset=0     yoffset=4    xadvance=6     page=0  chnl=0 
char id=100   x=297     y=0     width=11     height=17     xoffset=0     yoffset=4    xadvance=9     page=0  chnl=0 
char id=98   x=308     y=0     width=10     height=17     xoffset=0     yoffset=4    xadvance=9     page=0  chnl=0 
char id=90   x=318     y=0     width=13     height=17     xoffset=0     yoffset=4    xadvance=11     page=0  chnl=0 
char id=89   x=331     y=0     width=15     height=17     xoffset=0     yoffset=4    xadvance=14     page=0  chnl=0 
char id=88   x=346     y=0     width=15     height=17     xoffset=0     yoffset=4    xadvance=14     page=0  chnl=0 
char id=87   x=361     y=0     width=19     height=17     xoffset=0     yoffset=4    xadvance=18     page=0  chnl=0 
char id=86   x=380     y=0     width=15     height=17     xoffset=0     yoffset=4    xadvance=14     page=0  chnl=0 
char id=85   x=395     y=0     width=15     height=17     xoffset=0     yoffset=4    xadvance=14     page=0  chnl=0 
char id=84   x=410     y=0     width=13     height=17     xoffset=0     yoffset=4    xadvance=11     page=0  chnl=0 
char id=83   x=423     y=0     width=11     height=17     xoffset=0     yoffset=4    xadvance=10     page=0  chnl=0 
char id=82   x=434     y=0     width=14     height=17     xoffset=0     yoffset=4    xadvance=13     page=0  chnl=0 
char id=80   x=448     y=0     width=12     height=17     xoffset=0     yoffset=4    xadvance=10     page=0  chnl=0 
char id=79   x=460     y=0     width=14     height=17     xoffset=0     yoffset=4    xadvance=14     page=0  chnl=0 
char id=78   x=474     y=0     width=15     height=17     xoffset=0     yoffset=4    xadvance=14     page=0  chnl=0 
char id=77   x=489     y=0     width=18     height=17     xoffset=0     yoffset=4    xadvance=17     page=0  chnl=0 
char id=76   x=0     y=20     width=13     height=17     xoffset=0     yoffset=4    xadvance=11     page=0  chnl=0 
char id=75   x=13     y=20     width=15     height=17     xoffset=0     yoffset=4    xadvance=14     page=0  chnl=0 
char id=74   x=28     y=20     width=8     height=17     xoffset=0     yoffset=4    xadvance=7     page=0  chnl=0 
char id=73   x=36     y=20     width=7     height=17     xoffset=0     yoffset=4    xadvance=6     page=0  chnl=0 
char id=72   x=43     y=20     width=15     height=17     xoffset=0     yoffset=4    xadvance=14     page=0  chnl=0 
char id=71   x=58     y=20     width=15     height=17     xoffset=0     yoffset=4    xadvance=14     page=0  chnl=0 
char id=70   x=73     y=20     width=12     height=17     xoffset=0     yoffset=4    xadvance=10     page=0  chnl=0 
char id=69   x=85     y=20     width=13     height=17     xoffset=0     yoffset=4    xadvance=11     page=0  chnl=0 
char id=68   x=98     y=20     width=14     height=17     xoffset=0     yoffset=4    xadvance=14     page=0  chnl=0 
char id=67   x=112     y=20     width=13     height=17     xoffset=0     yoffset=4    xadvance=13     page=0  chnl=0 
char id=66   x=125     y=20     width=13     height=17     xoffset=0     yoffset=4    xadvance=13     page=0  chnl=0 
char id=65   x=138     y=20     width=15     height=17     xoffset=0     yoffset=4    xadvance=14     page=0  chnl=0 
char id=116   x=153     y=20     width=7     height=15     xoffset=0     yoffset=6    xadvance=5     page=0  chnl=0 
char id=62   x=160     y=20     width=12     height=14     xoffset=0     yoffset=7    xadvance=11     page=0  chnl=0 
char id=59   x=172     y=20     width=5     height=14     xoffset=1     yoffset=9    xadvance=5     page=0  chnl=0 
char id=121   x=177     y=20     width=10     height=14     xoffset=0     yoffset=9    xadvance=9     page=0  chnl=0 
char id=113   x=187     y=20     width=11     height=14     xoffset=0     yoffset=9    xadvance=9     page=0  chnl=0 
char id=112   x=198     y=20     width=10     height=14     xoffset=0     yoffset=9    xadvance=9     page=0  chnl=0 
char id=103   x=208     y=20     width=10     height=14     xoffset=0     yoffset=9    xadvance=9     page=0  chnl=0 
char id=43   x=218     y=20     width=12     height=13     xoffset=0     yoffset=8    xadvance=11     page=0  chnl=0 
char id=60   x=230     y=20     width=12     height=13     xoffset=0     yoffset=8    xadvance=11     page=0  chnl=0 
char id=58   x=242     y=20     width=4     height=12     xoffset=1     yoffset=9    xadvance=5     page=0  chnl=0 
char id=122   x=246     y=20     width=9     height=12     xoffset=0     yoffset=9    xadvance=8     page=0  chnl=0 
char id=120   x=255     y=20     width=10     height=12     xoffset=0     yoffset=9    xadvance=9     page=0  chnl=0 
char id=119   x=265     y=20     width=15     height=12     xoffset=0     yoffset=9    xadvance=14     page=0  chnl=0 
char id=118   x=280     y=20     width=10     height=12     xoffset=0     yoffset=9    xadvance=9     page=0  chnl=0 
char id=117   x=290     y=20     width=10     height=12     xoffset=0     yoffset=9    xadvance=9     page=0  chnl=0 
char id=115   x=300     y=20     width=8     height=12     xoffset=0     yoffset=9    xadvance=7     page=0  chnl=0 
char id=114   x=308     y=20     width=8     height=12     xoffset=0     yoffset=9    xadvance=6     page=0  chnl=0 
char id=111   x=316     y=20     width=10     height=12     xoffset=0     yoffset=9    xadvance=9     page=0  chnl=0 
char id=110   x=326     y=20     width=11     height=12     xoffset=0     yoffset=9    xadvance=9     page=0  chnl=0 
char id=109   x=337     y=20     width=16     height=12     xoffset=0     yoffset=9    xadvance=15     page=0  chnl=0 
char id=101   x=353     y=20     width=9     height=12     xoffset=0     yoffset=9    xadvance=8     page=0  chnl=0 
char id=99   x=362     y=20     width=9     height=12     xoffset=0     yoffset=9    xadvance=8     page=0  chnl=0 
char id=97   x=371     y=20     width=10     height=12     xoffset=0     yoffset=9    xadvance=8     page=0  chnl=0 
char id=42   x=381     y=20     width=9     height=11     xoffset=1     yoffset=4    xadvance=9     page=0  chnl=0 
char id=94   x=390     y=20     width=10     height=10     xoffset=0     yoffset=4    xadvance=9     page=0  chnl=0 
char id=61   x=400     y=20     width=12     height=8     xoffset=0     yoffset=10    xadvance=11     page=0  chnl=0 
char id=44   x=412     y=20     width=4     height=7     xoffset=1     yoffset=16    xadvance=5     page=0  chnl=0 
char id=39   x=416     y=20     width=4     height=7     xoffset=0     yoffset=4    xadvance=3     page=0  chnl=0 
char id=34   x=420     y=20     width=7     height=7     xoffset=1     yoffset=4    xadvance=8     page=0  chnl=0 
char id=96   x=427     y=20     width=6     height=6     xoffset=0     yoffset=4    xadvance=6     page=0  chnl=0 
char id=126   x=433     y=20     width=11     height=5     xoffset=0     yoffset=12    xadvance=10     page=0  chnl=0 
char id=46   x=444     y=20     width=4     height=5     xoffset=1     yoffset=16    xadvance=5     page=0  chnl=0 
char id=95   x=448     y=20     width=11     height=3     xoffset=0     yoffset=20    xadvance=9     page=0  chnl=0 
char id=45   x=459     y=20     width=7     height=3     xoffset=0     yoffset=13    xadvance=6     page=0  chnl=0 
